…
## Ejercicios Parte 9.2

### ¿Cómo podrías usar arrange() para ordenar todos los valores faltantes al comienzo? (Sugerencia: usa is.na()).

``` r
arrange(flights,desc(is.na(air_time)))
```

    ## # A tibble: 336,776 x 19
    ##     year month   day dep_time sched_dep_time dep_delay arr_time sched_arr_time
    ##    <int> <int> <int>    <int>          <int>     <dbl>    <int>          <int>
    ##  1  2013     1     1     1525           1530        -5     1934           1805
    ##  2  2013     1     1     1528           1459        29     2002           1647
    ##  3  2013     1     1     1740           1745        -5     2158           2020
    ##  4  2013     1     1     1807           1738        29     2251           2103
    ##  5  2013     1     1     1939           1840        59       29           2151
    ##  6  2013     1     1     1952           1930        22     2358           2207
    ##  7  2013     1     1     2016           1930        46       NA           2220
    ##  8  2013     1     1       NA           1630        NA       NA           1815
    ##  9  2013     1     1       NA           1935        NA       NA           2240
    ## 10  2013     1     1       NA           1500        NA       NA           1825
    ## # ... with 336,766 more rows, and 11 more variables: arr_delay <dbl>,
    ## #   carrier <chr>, flight <int>, tailnum <chr>, origin <chr>, dest <chr>,
    ## #   air_time <dbl>, distance <dbl>, hour <dbl>, minute <dbl>, time_hour <dttm>

### Ordena vuelos para encontrar los vuelos más retrasados. Encuentra los vuelos que salieron más temprano.

``` r
arrange(flights, desc(dep_delay)) #más retraso
```

    ## # A tibble: 336,776 x 19
    ##     year month   day dep_time sched_dep_time dep_delay arr_time sched_arr_time
    ##    <int> <int> <int>    <int>          <int>     <dbl>    <int>          <int>
    ##  1  2013     1     9      641            900      1301     1242           1530
    ##  2  2013     6    15     1432           1935      1137     1607           2120
    ##  3  2013     1    10     1121           1635      1126     1239           1810
    ##  4  2013     9    20     1139           1845      1014     1457           2210
    ##  5  2013     7    22      845           1600      1005     1044           1815
    ##  6  2013     4    10     1100           1900       960     1342           2211
    ##  7  2013     3    17     2321            810       911      135           1020
    ##  8  2013     6    27      959           1900       899     1236           2226
    ##  9  2013     7    22     2257            759       898      121           1026
    ## 10  2013    12     5      756           1700       896     1058           2020
    ## # ... with 336,766 more rows, and 11 more variables: arr_delay <dbl>,
    ## #   carrier <chr>, flight <int>, tailnum <chr>, origin <chr>, dest <chr>,
    ## #   air_time <dbl>, distance <dbl>, hour <dbl>, minute <dbl>, time_hour <dttm>

``` r
arrange(flights,  (dep_delay)) #más temprano
```

    ## # A tibble: 336,776 x 19
    ##     year month   day dep_time sched_dep_time dep_delay arr_time sched_arr_time
    ##    <int> <int> <int>    <int>          <int>     <dbl>    <int>          <int>
    ##  1  2013    12     7     2040           2123       -43       40           2352
    ##  2  2013     2     3     2022           2055       -33     2240           2338
    ##  3  2013    11    10     1408           1440       -32     1549           1559
    ##  4  2013     1    11     1900           1930       -30     2233           2243
    ##  5  2013     1    29     1703           1730       -27     1947           1957
    ##  6  2013     8     9      729            755       -26     1002            955
    ##  7  2013    10    23     1907           1932       -25     2143           2143
    ##  8  2013     3    30     2030           2055       -25     2213           2250
    ##  9  2013     3     2     1431           1455       -24     1601           1631
    ## 10  2013     5     5      934            958       -24     1225           1309
    ## # ... with 336,766 more rows, and 11 more variables: arr_delay <dbl>,
    ## #   carrier <chr>, flight <int>, tailnum <chr>, origin <chr>, dest <chr>,
    ## #   air_time <dbl>, distance <dbl>, hour <dbl>, minute <dbl>, time_hour <dttm>

### Ordena vuelos para encontrar los vuelos más rápidos (que viajaron a mayor velocidad).

``` r
arrange(flights,desc(distance/air_time))
```

    ## # A tibble: 336,776 x 19
    ##     year month   day dep_time sched_dep_time dep_delay arr_time sched_arr_time
    ##    <int> <int> <int>    <int>          <int>     <dbl>    <int>          <int>
    ##  1  2013     5    25     1709           1700         9     1923           1937
    ##  2  2013     7     2     1558           1513        45     1745           1719
    ##  3  2013     5    13     2040           2025        15     2225           2226
    ##  4  2013     3    23     1914           1910         4     2045           2043
    ##  5  2013     1    12     1559           1600        -1     1849           1917
    ##  6  2013    11    17      650            655        -5     1059           1150
    ##  7  2013     2    21     2355           2358        -3      412            438
    ##  8  2013    11    17      759            800        -1     1212           1255
    ##  9  2013    11    16     2003           1925        38       17             36
    ## 10  2013    11    16     2349           2359       -10      402            440
    ## # ... with 336,766 more rows, and 11 more variables: arr_delay <dbl>,
    ## #   carrier <chr>, flight <int>, tailnum <chr>, origin <chr>, dest <chr>,
    ## #   air_time <dbl>, distance <dbl>, hour <dbl>, minute <dbl>, time_hour <dttm>

### Ordena vuelos para encontrar los vuelos más rápidos (que viajaron a mayor velocidad).

### velocidad es igual a `distance`/`air_time` (distancia recorrida por minuto)

``` r
arrange(flights,desc(distance/air_time))
```

    ## # A tibble: 336,776 x 19
    ##     year month   day dep_time sched_dep_time dep_delay arr_time sched_arr_time
    ##    <int> <int> <int>    <int>          <int>     <dbl>    <int>          <int>
    ##  1  2013     5    25     1709           1700         9     1923           1937
    ##  2  2013     7     2     1558           1513        45     1745           1719
    ##  3  2013     5    13     2040           2025        15     2225           2226
    ##  4  2013     3    23     1914           1910         4     2045           2043
    ##  5  2013     1    12     1559           1600        -1     1849           1917
    ##  6  2013    11    17      650            655        -5     1059           1150
    ##  7  2013     2    21     2355           2358        -3      412            438
    ##  8  2013    11    17      759            800        -1     1212           1255
    ##  9  2013    11    16     2003           1925        38       17             36
    ## 10  2013    11    16     2349           2359       -10      402            440
    ## # ... with 336,766 more rows, and 11 more variables: arr_delay <dbl>,
    ## #   carrier <chr>, flight <int>, tailnum <chr>, origin <chr>, dest <chr>,
    ## #   air_time <dbl>, distance <dbl>, hour <dbl>, minute <dbl>, time_hour <dttm>

### ¿Cuáles vuelos viajaron más lejos? ¿Cuál viajó más cerca?

``` r
arrange(flights, desc(distance))
```

    ## # A tibble: 336,776 x 19
    ##     year month   day dep_time sched_dep_time dep_delay arr_time sched_arr_time
    ##    <int> <int> <int>    <int>          <int>     <dbl>    <int>          <int>
    ##  1  2013     1     1      857            900        -3     1516           1530
    ##  2  2013     1     2      909            900         9     1525           1530
    ##  3  2013     1     3      914            900        14     1504           1530
    ##  4  2013     1     4      900            900         0     1516           1530
    ##  5  2013     1     5      858            900        -2     1519           1530
    ##  6  2013     1     6     1019            900        79     1558           1530
    ##  7  2013     1     7     1042            900       102     1620           1530
    ##  8  2013     1     8      901            900         1     1504           1530
    ##  9  2013     1     9      641            900      1301     1242           1530
    ## 10  2013     1    10      859            900        -1     1449           1530
    ## # ... with 336,766 more rows, and 11 more variables: arr_delay <dbl>,
    ## #   carrier <chr>, flight <int>, tailnum <chr>, origin <chr>, dest <chr>,
    ## #   air_time <dbl>, distance <dbl>, hour <dbl>, minute <dbl>, time_hour <dttm>

``` r
arrange(flights, (distance))
```

    ## # A tibble: 336,776 x 19
    ##     year month   day dep_time sched_dep_time dep_delay arr_time sched_arr_time
    ##    <int> <int> <int>    <int>          <int>     <dbl>    <int>          <int>
    ##  1  2013     7    27       NA            106        NA       NA            245
    ##  2  2013     1     3     2127           2129        -2     2222           2224
    ##  3  2013     1     4     1240           1200        40     1333           1306
    ##  4  2013     1     4     1829           1615       134     1937           1721
    ##  5  2013     1     4     2128           2129        -1     2218           2224
    ##  6  2013     1     5     1155           1200        -5     1241           1306
    ##  7  2013     1     6     2125           2129        -4     2224           2224
    ##  8  2013     1     7     2124           2129        -5     2212           2224
    ##  9  2013     1     8     2127           2130        -3     2304           2225
    ## 10  2013     1     9     2126           2129        -3     2217           2224
    ## # ... with 336,766 more rows, and 11 more variables: arr_delay <dbl>,
    ## #   carrier <chr>, flight <int>, tailnum <chr>, origin <chr>, dest <chr>,
    ## #   air_time <dbl>, distance <dbl>, hour <dbl>, minute <dbl>, time_hour <dttm>
…
